Bike accident in Geneva
…
The number of accident increased between 2010 and 2015, than is stabilized around the 245 accidents per year. This increase can be explain with the fact that there are more accidents in general and more bikers every year, but we cant find statistics or number of the cyclists count. The lastest estimation that can be found is from 2011 with 19200 bikes calculated at the peak hours. We can also see that the proportion of electric bike increased but remain low in confront of the regular bike. The percent is not really relevant because of the few numbers of electric bike. 
 In a more detailed plot, we can see the accident each month and the prediction. All the years follows the same sketch, the accident increase from january to juni and than decrease. This can be explain by the seasonal pattern and the fact that the priod may-july is when there are the most cyclist in the roads. A grand part of them are cyclist that use just those months the bycicle and are more probability to be involved in an accident.

## # A tibble: 96 x 3
## # Groups:   ANNEE [8]
##    ANNEE month  pred
##    <int> <dbl> <dbl>
##  1  2010    1.  2.37
##  2  2010    2.  6.28
##  3  2010    3.  9.86
##  4  2010    4. 13.1 
##  5  2010    5. 15.9 
##  6  2010    6. 17.6 
##  7  2010    7. 18.3 
##  8  2010    8. 18.0 
##  9  2010    9. 16.6 
## 10  2010   10. 13.6 
## # ... with 86 more rows
…
